4 Debugging pipelines – The {targets} R package user manual
…
# Read the simulations that succeeded.
tar_read(analysis)
#> # A tibble: 250 × 12
#>    term        estimate std.error statistic  p.value conf.low conf.high units
#>    <chr>          <dbl>     <dbl>     <dbl>    <dbl>    <dbl>     <dbl> <dbl>
#>  1 (Intercept)    0.775    0.167       4.64 5.78e- 6   0.448      1.10     58
#>  2 factor         0.285    0.0525      5.43 1.42e- 7   0.182      0.388    58
#>  3 (Intercept)    0.892    0.161       5.53 8.75e- 8   0.576      1.21     58
#>  4 factor         0.262    0.0477      5.48 1.09e- 7   0.168      0.355    58
#>  5 (Intercept)    1.04     0.186       5.61 5.93e- 8   0.676      1.40     58
#>  6 factor         0.203    0.0607      3.34 9.72e- 4   0.0839     0.322    58
#>  7 (Intercept)    0.665    0.163       4.08 6.23e- 5   0.346      0.985    58
#>  8 factor         0.350    0.0508      6.88 5.75e-11   0.250      0.449    58
#>  9 (Intercept)    1.03     0.162       6.36 1.07e- 9   0.713      1.35     58
#> 10 factor         0.244    0.0514      4.74 3.77e- 6   0.143      0.345    58
#> # ℹ 240 more rows
#> # ℹ 4 more variables: tar_batch <int>, tar_rep <int>, tar_seed <int>,
#> #   tar_group <int>
#> # ℹ Use `print(n = ...)` to see more rows
…
