Chapter 11 Dynamic branching | The targets R Package User Manual
…
This plot comes from all the branches of points aggregated together. Because target points has iteration = "vector" in tar_target(), any reference to the whole target automatically aggregates the branches using vctrs::vec_c(). For data frames, this just binds all the rows.

tar_read(points)
#> # A tibble: 20,000 × 4
#>        x     y fixed_radius cycling_radius
#>    <dbl> <dbl>        <int>          <int>
#>  1 -2.46 -4.43            3              9
#>  2 -2.41 -4.46            3              9
#>  3 -2.37 -4.48            3              9
#>  4 -2.33 -4.50            3              9
#>  5 -2.28 -4.53            3              9
#>  6 -2.24 -4.55            3              9
#>  7 -2.19 -4.57            3              9
#>  8 -2.15 -4.60            3              9
#>  9 -2.10 -4.62            3              9
#> 10 -2.06 -4.64            3              9
#> # … with 19,990 more rows
#> # ℹ Use `print(n = ...)` to see more rows
…
11.4 Provenance

Recall our dynamic target points with branches for spirograph datasets. Each branch has columns fixed_radius and cycling_radius so we know which parameter set each spirograph used. It is good practice to proactively append this metadata to each branch, e.g. in spirograph_points(). That way, if a branch errors out, it is easy to track down the upstream data that caused it.24

tar_read(points, branches = 1) # first branch
#> # A tibble: 10,000 × 4
#>        x     y fixed_radius cycling_radius
#>    <dbl> <dbl>        <int>          <int>
#>  1 -2.46 -4.43            3              9
#>  2 -2.41 -4.46            3              9
#>  3 -2.37 -4.48            3              9
#>  4 -2.33 -4.50            3              9
#>  5 -2.28 -4.53            3              9
#>  6 -2.24 -4.55            3              9
#>  7 -2.19 -4.57            3              9
#>  8 -2.15 -4.60            3              9
#>  9 -2.10 -4.62            3              9
#> 10 -2.06 -4.64            3              9
#> # … with 9,990 more rows
#> # ℹ Use `print(n = ...)` to see more rows

tar_read(points, branches = 2) # second branch
#> # A tibble: 10,000 × 4
#>        x     y fixed_radius cycling_radius
#>    <dbl> <dbl>        <int>          <int>
#>  1  1.90  3.61            7              2
#>  2  1.85  3.65            7              2
#>  3  1.79  3.70            7              2
#>  4  1.74  3.74            7              2
#>  5  1.69  3.78            7              2
#>  6  1.64  3.83            7              2
#>  7  1.59  3.87            7              2
#>  8  1.53  3.91            7              2
#>  9  1.48  3.96            7              2
#> 10  1.43  4.00            7              2
#> # … with 9,990 more rows
#> # ℹ Use `print(n = ...)` to see more rows
…
